﻿{
  "Descriptor": {
    "UId": "20602bc0-a735-4c6a-b8e1-7412cde126d5",
    "Name": "qrtBudgetWidget",
    "ModifiedOnUtc": "\/Date(1653918657000)\/",
    "ManagerName": "ClientUnitSchemaManager",
    "Caption": "Виджет бюджета",
    "DependsOn": []
  }
}