﻿{
  "MetaData": {
    "Schema": {
      "ManagerName": "ClientUnitSchemaManager",
      "UId": "20602bc0-a735-4c6a-b8e1-7412cde126d5",
      "A2": "qrtBudgetWidget",
      "A5": "8545546a-8a8e-48b5-af65-49a6fae97a0d",
      "B1": [],
      "B2": [],
      "B3": [],
      "B6": "379a07a9-c3b6-b75d-71b9-d9bbfbdaacd5",
      "B8": "7.18.3.1241",
      "HD1": "50e3acc0-26fc-4237-a095-849a1d534bd3",
      "HD2": "null",
      "HD4": 1,
      "HD6": "null",
      "HD5": [],
      "HD7": [],
      "HD8": [],
      "HD11": [],
      "HD9": "null",
      "HD10": "null"
    }
  }
}